Lab 7: Rectangling and Webscraping
…
    guess_encoding

library(xml2)
library(dplyr)
library(stringr)

Problem 1: Load the repurrrsive package to get access to get access to the got_chars dataset. In section 23.4.2 of R4DS, there is code that extracts data from the got_chars list and converts it into a tibble with information on each character and a separate tibble which contains information on the titles held by each character. Perform similar operations to create separate tibbles containing the aliases, allegiances, books, and TV series of each Game of Thrones character.

chars <- tibble(json = got_chars)

chars |> 
  unnest_wider(json)

# A tibble: 30 × 18
   url           id name  gender culture born  died  alive titles aliases father
   <chr>      <int> <chr> <chr>  <chr>   <chr> <chr> <lgl> <list> <list>  <chr> 
 1 https://w…  1022 Theo… Male   "Ironb… "In … ""    TRUE  <chr>  <chr>   ""    
 2 https://w…  1052 Tyri… Male   ""      "In … ""    TRUE  <chr>  <chr>   ""    
 3 https://w…  1074 Vict… Male   "Ironb… "In … ""    TRUE  <chr>  <chr>   ""    
 4 https://w…  1109 Will  Male   ""      ""    "In … FALSE <chr>  <chr>   ""    
 5 https://w…  1166 Areo… Male   "Norvo… "In … ""    TRUE  <chr>  <chr>   ""    
 6 https://w…  1267 Chett Male   ""      "At … "In … FALSE <chr>  <chr>   ""    
 7 https://w…  1295 Cres… Male   ""      "In … "In … FALSE <chr>  <chr>   ""    
 8 https://w…   130 Aria… Female "Dorni… "In … ""    TRUE  <chr>  <chr>   ""    
 9 https://w…  1303 Daen… Female "Valyr… "In … ""    TRUE  <chr>  <chr>   ""    
10 https://w…  1319 Davo… Male   "Weste… "In … ""    TRUE  <chr>  <chr>   ""    
# ℹ 20 more rows
# ℹ 7 more variables: mother <chr>, spouse <chr>, allegiances <list>,
#   books <list>, povBooks <list>, tvSeries <list>, playedBy <list>

characters <- chars |> 
  unnest_wider(json) |> 
  select(id, aliases , allegiances, books, tvSeries)
characters

# A tibble: 30 × 5
      id aliases    allegiances books     tvSeries 
   <int> <list>     <list>      <list>    <list>   
 1  1022 <chr [4]>  <chr [1]>   <chr [3]> <chr [6]>
 2  1052 <chr [11]> <chr [1]>   <chr [2]> <chr [6]>
 3  1074 <chr [1]>  <chr [1]>   <chr [3]> <chr [1]>
 4  1109 <chr [1]>  <NULL>      <chr [1]> <chr [1]>
 5  1166 <chr [1]>  <chr [1]>   <chr [3]> <chr [2]>
 6  1267 <chr [1]>  <NULL>      <chr [2]> <chr [1]>
 7  1295 <chr [1]>  <NULL>      <chr [2]> <chr [1]>
 8   130 <chr [1]>  <chr [1]>   <chr [4]> <chr [1]>
 9  1303 <chr [11]> <chr [1]>   <chr [1]> <chr [6]>
10  1319 <chr [5]>  <chr [2]>   <chr [1]> <chr [5]>
# ℹ 20 more rows
…
tv_series <- chars |> 
  unnest_wider(json) |> 
  select(id, tvSeries) |> 
  unnest_longer(tvSeries) |> 
  filter(tvSeries != "") |> 
  rename(tv_show = tvSeries)
tv_series

# A tibble: 93 × 2
      id tv_show 
   <int> <chr>   
 1  1022 Season 1
 2  1022 Season 2
 3  1022 Season 3
 4  1022 Season 4
 5  1022 Season 5
 6  1022 Season 6
 7  1052 Season 1
 8  1052 Season 2
 9  1052 Season 3
10  1052 Season 4
# ℹ 83 more rows
…
